Journal (reproducible report)
…
  # grouping by and summarizing sales according to year and location(state)
  
  group_by(year, state) %>%
  summarise(sales = sum(total.price)) %>%
  ungroup() %>%
  
  mutate(sales.text = scales::dollar(sales, big.mark = ".", 
                                     decimal.mark = ",", 
                                     prefix = "", 
                                     suffix = " €"))  
  
sales_by_location_year_tbl    

## # A tibble: 60 x 4
##     year state                           sales sales.text 
##    <int> <chr>                           <dbl> <chr>      
##  1  2015 Baden-Württemberg             1031924 1.031.924 €
##  2  2015 Bavaria                       1301461 1.301.461 €
##  3  2015 Berlin                          95853 95.853 €   
##  4  2015 Bremen                        1395912 1.395.912 €
##  5  2015 Hamburg                        423090 423.090 €  
##  6  2015 Hesse                          308609 308.609 €  
##  7  2015 Lower Saxony                   584386 584.386 €  
##  8  2015 Mecklenburg-Western Pomerania  222003 222.003 €  
##  9  2015 North Rhine-Westphalia        3735092 3.735.092 €
## 10  2015 Saxony                         238371 238.371 €  
## # ... with 50 more rows
…
top_ten

result_4a <- top_ten
result_4a

write_rds(result_4a, "C:/SPB_Data/lab_journal_website/ws20-business-data-science-basics---lab-journal-Ahmadul-kabir/rds_file/result4a.rds")

library(readr)
library(data.table)
result_4a <- read_rds("C:/SPB_Data/lab_journal_website/ws20-business-data-science-basics---lab-journal-Ahmadul-kabir/rds_file/result4a.rds")
result_4a

## # A tibble: 226,687 x 3
##    organization                                type       n
##    <chr>                                       <chr>  <int>
##  1 International Business Machines Corporation 2     139092
##  2 General Electric Company                    2      47122
##  3 Intel Corporation                           2      42157
##  4 Hewlett-Packard Development Company, L.P.   2      35573
##  5 Microsoft Corporation                       2      30086
##  6 Micron Technology, Inc.                     2      28001
##  7 QUALCOMM Incorporated                       2      24703
##  8 Texas Instruments Incorporated              2      24182
##  9 Xerox Corporation                           2      23174
## 10 Apple Inc.                                  2      21821
## # ... with 226,677 more rows
…
result_4b <- top_ten_new

write_rds(result_4b, "C:/SPB_Data/lab_journal_website/ws20-business-data-science-basics---lab-journal-Ahmadul-kabir/rds_file/result4b.rds")

result_4c <- top_ten_worldwide

write_rds(result_4c, "C:/SPB_Data/lab_journal_website/ws20-business-data-science-basics---lab-journal-Ahmadul-kabir/rds_file/result4c.rds")

library(readr)
library(data.table)
result_4b <- read_rds("C:/SPB_Data/lab_journal_website/ws20-business-data-science-basics---lab-journal-Ahmadul-kabir/rds_file/result4b.rds")
result_4b

## # A tibble: 22,753 x 4
##    organization                                type   year     n
##    <chr>                                       <chr> <int> <int>
##  1 International Business Machines Corporation 2      2014  7547
##  2 Microsoft Corporation                       2      2014  3165
##  3 Google Inc.                                 2      2014  2668
##  4 QUALCOMM Incorporated                       2      2014  2597
##  5 Apple Inc.                                  2      2014  2201
##  6 General Electric Company                    2      2014  1873
##  7 Hewlett-Packard Development Company, L.P.   2      2014  1638
##  8 AT&T INTELLECTUAL PROPERTY I, L.P.          2      2014  1625
##  9 Intel Corporation                           2      2014  1616
## 10 GM Global Technology Operations LLC         2      2014  1533
## # ... with 22,743 more rows

result_4c <- read_rds("C:/SPB_Data/lab_journal_website/ws20-business-data-science-basics---lab-journal-Ahmadul-kabir/rds_file/result4c.rds")
result_4c

## # A tibble: 544 x 2
##    mainclass_id     n
##    <chr>        <int>
##  1 257          10272
##  2 370           8361
##  3 455           7849
##  4 709           5608
##  5 438           5127
##  6 345           4961
##  7 435           4443
##  8 514           4363
##  9 424           4027
## 10 348           4016
## # ... with 534 more rows
…
